Making maps using geofi-package
…
pop_data <- bind_rows(
  tibble(
    municipality_code = polygon$municipality_code
  ) |> 
    mutate(population = rnorm(n = nrow(polygon), mean = 2000, sd = 250),
           time = 2020),
  tibble(
    municipality_code = polygon$municipality_code
  ) |> 
    mutate(population = rnorm(n = nrow(polygon), mean = 2000, sd = 250),
           time = 2021)
  )
pop_data
#> # A tibble: 618 × 3
#>    municipality_code population  time
#>                <int>      <dbl> <dbl>
#>  1                 5      1705.  2020
#>  2                 9      1844.  2020
#>  3                10      1967.  2020
#>  4                16      2126.  2020
#>  5                18      1693.  2020
#>  6                19      1964.  2020
#>  7                20      2381.  2020
#>  8                35      2018.  2020
#>  9                43      1965.  2020
#> 10                46      2399.  2020
#> # ℹ 608 more rows
…
